{
  "info": {
    "_postman_id": "0fa76767-e6b7-4415-9a97-c989e16fcb84",
    "name": "test JSON Copy",
    "schema": "https://schema.getpostman.com/json/collection/v2.0.0/collection.json"
  },
  "item": [
    {
      "name": "test",
      "event": [
        {
          "listen": "prerequest",
          "script": {
            "type": "text/javascript",
            "exec": [
              "pm.request.url.query.each((q) => {",
              " q.update(encodeURIComponent(q))",
              "});",
              "// var encoded = encodeURIComponent(pm.environment.get(\"colvar\"));",
              "// console.log(encoded)"
            ]
          }
        }
      ],
      "_postman_id": "ac45c451-23b7-4696-b5b9-75c164f57c2d",
      "protocolProfileBehavior": {
        "disableBodyPruning": true,
        "strictSSL": false
      },
      "request": {
        "auth": {
          "type": "oauth2",
          "oauth2": {
            "addTokenTo": "header",
            "authUrl": "https://api.imgur.com/oauth2/authorize",
            "accessTokenUrl": "https://api.imgur.com/oauth2/token",
            "clientId": "{{client-id}}",
            "clientSecret": "{{client-secret}}",
            "scope": ""
          }
        },
        "method": "GET",
        "header": [
          {
            "key": "Authorization",
            "value": "eyJhbGciOiJIUzI1NiIsInR5cCI6IkpXVCJ9.eyJpZCI6NCwic29ja2V0SUQiOiJNWHNSRWpJMWZvdVNuV1hFQUFBTCIsImlhdCI6MTYxODUxMDIxNX0.5S58RLLvK9l_ScuQ-EE2sXt9TNNKMn17mYPG8ZLSjm4",
            "type": "text"
          }
        ],
        "body": {
          "mode": "raw",
          "raw": "",
          "options": {
            "raw": {
              "language": "json"
            }
          }
        },
        "url": "test.com/{{var1}}",
        "description": "Test"
      },
      "response": [
        {
          "id": "f3d1b9da-fbad-49f5-ae40-744f98310f1d",
          "name": "test",
          "originalRequest": {
            "method": "GET",
            "header": [
              {
                "key": "Authorization",
                "value": "eyJhbGciOiJIUzI1NiIsInR5cCI6IkpXVCJ9.eyJpZCI6NCwic29ja2V0SUQiOiJNWHNSRWpJMWZvdVNuV1hFQUFBTCIsImlhdCI6MTYxODUxMDIxNX0.5S58RLLvK9l_ScuQ-EE2sXt9TNNKMn17mYPG8ZLSjm4",
                "type": "text"
              }
            ],
            "url": "localhost:3000"
          },
          "status": "OK",
          "code": 200,
          "_postman_previewlanguage": "raw",
          "header": [
            {
              "key": "X-Powered-By",
              "value": "Express"
            },
            {
              "key": "Content-Type",
              "value": "application/octet-stream"
            },
            {
              "key": "Content-Length",
              "value": "3093093"
            },
            {
              "key": "ETag",
              "value": "W/\"2f3265-QEHIX9Vs6Y4BUKsI48tGCw0TMog\""
            },
            {
              "key": "Date",
              "value": "Fri, 04 Jun 2021 09:55:36 GMT"
            },
            {
              "key": "Connection",
              "value": "keep-alive"
            },
            {
              "key": "Keep-Alive",
              "value": "timeout=5"
            }
          ],
          "cookie": [],
          "responseTime": null,
          "body": "test"
        }
      ]
    }
  ],
  "event": [
    {
      "listen": "prerequest",
      "script": {
        "id": "2fb27bd9-1d8f-4eb2-b26e-849d2b815149",
        "type": "text/javascript",
        "exec": [
          ""
        ]
      }
    },
    {
      "listen": "test",
      "script": {
        "id": "769963e8-9163-442b-8f4d-b9c6276f5b6b",
        "type": "text/javascript",
        "exec": [
          ""
        ]
      }
    }
  ]
}