{
  "info": {
    "_postman_id": "78d7a387-a84e-47e7-90a0-e52275385c25",
    "name": "Backup_Integration",
    "schema": "https://schema.getpostman.com/json/collection/v2.0.0/collection.json"
  },
  "item": [
    {
      "name": "Zero one",
      "event": [
        {
          "listen": "test",
          "script": {
            "id": "3d958d1c-8eaa-401c-9e94-530c39ee2981",
            "exec": [
              "pm.test(\"Status code is 200\", function () {",
              "    pm.response.to.have.status(200);",
              "});"
            ],
            "type": "text/javascript"
          }
        }
      ],
      "_postman_id": "e108aa08-2828-4ff9-a1f2-c66feb1e39b1",
      "protocolProfileBehavior": {
        "disableBodyPruning": true
      },
      "request": {
        "method": "GET",
        "header": [],
        "url": "https://postman-echo.com/get"
      },
      "response": []
    },
    {
      "name": "Zero two",
      "_postman_id": "d72eeab1-27af-4855-bf65-a97c4d779f60",
      "protocolProfileBehavior": {
        "disableBodyPruning": true
      },
      "request": {
        "method": "POST",
        "header": [],
        "url": "https://postman-echo.com/post"
      },
      "response": []
    }
  ]
}